{
  "name": "front",
  "integrations": {
    "cordova": {}
  },
  "type": "ionic1",
  "watchPatterns": [
    "scss/**/*",
    "www/**/*",
    "!www/lib/**/*",
    "!www/**/*.map"
  ],
  "pro_id": "ddc7c25d"
}